%!PS-Adobe-2.0 EPSF-2.0
%%BoundingBox:  0 0 567 391
%%Title: : Canvas_1
%%Creator: ROOT Version 5.34/18
%%CreationDate: Tue Oct 21 15:49:21 2014
%%EndComments
%%BeginProlog
80 dict begin
/s {stroke} def /l {lineto} def /m {moveto} def /t {translate} def
/r {rotate} def /rl {roll}  def /R {repeat} def
/d {rlineto} def /rm {rmoveto} def /gr {grestore} def /f {eofill} def
/c {setrgbcolor} def /black {0 setgray} def /sd {setdash} def
/cl {closepath} def /sf {scalefont setfont} def /lw {setlinewidth} def
/box {m dup 0 exch d exch 0 d 0 exch neg d cl} def
/NC{systemdict begin initclip end}def/C{NC box clip newpath}def
/bl {box s} def /bf {box f} def /Y { 0 exch d} def /X { 0 d} def 
/K {{pop pop 0 moveto} exch kshow} bind def
/ita {/ang 15 def gsave [1 0 ang dup sin exch cos div 1 0 0] concat} def 
/mp {newpath /y exch def /x exch def} def
/side {[w .77 mul w .23 mul] .385 w mul sd w 0 l currentpoint t -144 r} def
/mr {mp x y w2 0 360 arc} def /m24 {mr s} def /m20 {mr f} def
/mb {mp x y w2 add m w2 neg 0 d 0 w neg d w 0 d 0 w d cl} def
/mt {mp x y w2 add m w2 neg w neg d w 0 d cl} def
/m21 {mb f} def /m25 {mb s} def /m22 {mt f} def /m26{mt s} def
/m23 {mp x y w2 sub m w2 w d w neg 0 d cl f} def
/m27 {mp x y w2 add m w3 neg w2 neg d w3 w2 neg d w3 w2 d cl s} def
/m28 {mp x w2 sub y w2 sub w3 add m w3 0 d  0 w3 neg d w3 0 d 0 w3 d w3 0 d  0 w3 d w3 neg 0 d 0 w3 d w3 neg 0 d 0 w3 neg d w3 neg 0 d cl s } def
/m29 {mp gsave x w2 sub y w2 add w3 sub m currentpoint t 4 {side} repeat cl fill gr} def
/m30 {mp gsave x w2 sub y w2 add w3 sub m currentpoint t 4 {side} repeat cl s gr} def
/m31 {mp x y w2 sub m 0 w d x w2 sub y m w 0 d x w2 sub y w2 add m w w neg d x w2 sub y w2 sub m w w d s} def
/m32 {mp x y w2 sub m w2 w d w neg 0 d cl s} def
/m33 {mp x y w2 add m w3 neg w2 neg d w3 w2 neg d w3 w2 d cl f} def
/m34 {mp x w2 sub y w2 sub w3 add m w3 0 d  0 w3 neg d w3 0 d 0 w3 d w3 0 d  0 w3 d w3 neg 0 d 0 w3 d w3 neg 0 d 0 w3 neg d w3 neg 0 d cl f } def
/m2 {mp x y w2 sub m 0 w d x w2 sub y m w 0 d s} def
/m5 {mp x w2 sub y w2 sub m w w d x w2 sub y w2 add m w w neg d s} def
/reEncode {exch findfont dup length dict begin {1 index /FID eq  {pop pop} {def} ifelse } forall /Encoding exch def currentdict end dup /FontName get exch definefont pop } def [/Times-Bold /Times-Italic /Times-BoldItalic /Helvetica /Helvetica-Oblique
 /Helvetica-Bold /Helvetica-BoldOblique /Courier /Courier-Oblique /Courier-Bold /Courier-BoldOblique /Times-Roman /AvantGarde-Book /AvantGarde-BookOblique /AvantGarde-Demi /AvantGarde-DemiOblique /Bookman-Demi /Bookman-DemiItalic /Bookman-Light
 /Bookman-LightItalic /Helvetica-Narrow /Helvetica-Narrow-Bold /Helvetica-Narrow-BoldOblique /Helvetica-Narrow-Oblique /NewCenturySchlbk-Roman /NewCenturySchlbk-Bold /NewCenturySchlbk-BoldItalic /NewCenturySchlbk-Italic /Palatino-Bold
 /Palatino-BoldItalic /Palatino-Italic /Palatino-Roman ] {ISOLatin1Encoding reEncode } forall
%%EndProlog
%%BeginSetup
%%EndSetup
newpath  gsave  .25 .25 scale  gsave  0 0 t black[  ] 0 sd 3 lw 1 1 1 c 2268 1566 0 0 bf black 1 1 1 c 1814 1252 227 157 bf black 1814 1252 227 157 bl 1 1 1 c 1814 1252 227 157 bf black 1814 1252 227 157 bl 0 0 0.6 c 1 1 1 c black 0 0 0.6 c 254 511 m
 45 Y s 254 556 m 45 Y s 245 556 m 9 X s 254 556 m 9 X s black /w 2 def /w2 {w 2 div} def /w3 {w 3 div} def 254 556 m20 0 0 0.6 c 272 1102 m 72 Y s 272 1174 m 73 Y s 263 1174 m 9 X s 272 1174 m 9 X s black 272 1174 m20 0 0 0.6 c 290 1147 m 74 Y s 290
 1221 m 74 Y s 281 1221 m 9 X s 290 1221 m 9 X s black 290 1221 m20 0 0 0.6 c 308 1199 m 75 Y s 308 1274 m 76 Y s 299 1274 m 9 X s 308 1274 m 9 X s black 308 1274 m20 0 0 0.6 c 327 966 m 68 Y s 327 1034 m 67 Y s 317 1034 m 10 X s 327 1034 m 9 X s
 black 327 1034 m20 0 0 0.6 c 345 786 m 60 Y s 345 846 m 59 Y s 336 846 m 9 X s 345 846 m 9 X s black 345 846 m20 0 0 0.6 c 363 679 m 55 Y s 363 734 m 55 Y s 354 734 m 9 X s 363 734 m 9 X s black 363 734 m20 0 0 0.6 c 381 594 m 49 Y s 381 643 m 50 Y
 s 372 643 m 9 X s 381 643 m 9 X s black 381 643 m20 0 0 0.6 c 399 554 m 49 Y s 399 603 m 48 Y s 390 603 m 9 X s 399 603 m 9 X s black 399 603 m20 0 0 0.6 c 417 490 m 46 Y s 417 536 m 45 Y s 408 536 m 9 X s 417 536 m 9 X s black 417 536 m20 0 0 0.6 c
 435 471 m 43 Y s 435 514 m 42 Y s 426 514 m 9 X s 435 514 m 9 X s black 435 514 m20 0 0 0.6 c 454 373 m 36 Y s 454 409 m 36 Y s 444 409 m 10 X s 454 409 m 9 X s black 454 409 m20 0 0 0.6 c 472 347 m 34 Y s 472 381 m 33 Y s 463 381 m 9 X s 472 381 m
 9 X s black 472 381 m20 0 0 0.6 c 490 290 m 29 Y s 490 319 m 29 Y s 481 319 m 9 X s 490 319 m 9 X s black 490 319 m20 0 0 0.6 c 508 251 m 26 Y s 508 277 m 26 Y s 499 277 m 9 X s 508 277 m 9 X s black 508 277 m20 0 0 0.6 c 526 238 m 23 Y s 526 261 m
 22 Y s 517 261 m 9 X s 526 261 m 9 X s black 526 261 m20 0 0 0.6 c 544 225 m 20 Y s 544 245 m 19 Y s 535 245 m 9 X s 544 245 m 9 X s black 544 245 m20 0 0 0.6 c 562 200 m 17 Y s 562 217 m 18 Y s 553 217 m 9 X s 562 217 m 9 X s black 562 217 m20 0 0
 0.6 c 581 199 m 18 Y s 581 217 m 18 Y s 571 217 m 10 X s 581 217 m 9 X s black 581 217 m20 0 0 0.6 c 599 234 m 23 Y s 599 257 m 23 Y s 590 257 m 9 X s 599 257 m 9 X s black 599 257 m20 0 0 0.6 c 617 197 m 16 Y s 617 213 m 17 Y s 608 213 m 9 X s 617
 213 m 9 X s black 617 213 m20 0 0 0.6 c 635 192 m 15 Y s 635 207 m 16 Y s 626 207 m 9 X s 635 207 m 9 X s black 635 207 m20 0 0 0.6 c 653 176 m 11 Y s 653 187 m 12 Y s 644 187 m 9 X s 653 187 m 9 X s black 653 187 m20 0 0 0.6 c 671 185 m 14 Y s 671
 199 m 14 Y s 662 199 m 9 X s 671 199 m 9 X s black 671 199 m20 0 0 0.6 c 689 184 m 13 Y s 689 197 m 13 Y s 680 197 m 9 X s 689 197 m 9 X s black 689 197 m20 0 0 0.6 c 708 198 m 17 Y s 708 215 m 17 Y s 698 215 m 10 X s 708 215 m 9 X s black 708 215
 m20 0 0 0.6 c 726 334 m 33 Y s 726 367 m 33 Y s 717 367 m 9 X s 726 367 m 9 X s black 726 367 m20 0 0 0.6 c 744 312 m 31 Y s 744 343 m 31 Y s 735 343 m 9 X s 744 343 m 9 X s black 744 343 m20 0 0 0.6 c 762 301 m 29 Y s 762 330 m 29 Y s 753 330 m 9 X
 s 762 330 m 9 X s black 762 330 m20 0 0 0.6 c 780 220 m 20 Y s 780 240 m 20 Y s 771 240 m 9 X s 780 240 m 9 X s black 780 240 m20 0 0 0.6 c 798 213 m 20 Y s 798 233 m 19 Y s 789 233 m 9 X s 798 233 m 9 X s black 798 233 m20 0 0 0.6 c 816 193 m 17 Y
 s 816 210 m 16 Y s 807 210 m 9 X s 816 210 m 9 X s black 816 210 m20 0 0 0.6 c 835 201 m 18 Y s 835 219 m 18 Y s 825 219 m 10 X s 835 219 m 9 X s black 835 219 m20 0 0 0.6 c 853 174 m 12 Y s 853 186 m 13 Y s 844 186 m 9 X s 853 186 m 9 X s black 853
 186 m20 0 0 0.6 c 871 201 m 18 Y s 871 219 m 18 Y s 862 219 m 9 X s 871 219 m 9 X s black 871 219 m20 0 0 0.6 c 889 177 m 13 Y s 889 190 m 13 Y s 880 190 m 9 X s 889 190 m 9 X s black 889 190 m20 0 0 0.6 c 907 188 m 15 Y s 907 203 m 15 Y s 898 203 m
 9 X s 907 203 m 9 X s black 907 203 m20 0 0 0.6 c 925 200 m 18 Y s 925 218 m 18 Y s 916 218 m 9 X s 925 218 m 9 X s black 925 218 m20 0 0 0.6 c 943 178 m 13 Y s 943 191 m 13 Y s 934 191 m 9 X s 943 191 m 9 X s black 943 191 m20 0 0 0.6 c 962 183 m
 15 Y s 962 198 m 15 Y s 952 198 m 10 X s 962 198 m 9 X s black 962 198 m20 0 0 0.6 c 980 191 m 17 Y s 980 208 m 17 Y s 971 208 m 9 X s 980 208 m 9 X s black 980 208 m20 0 0 0.6 c 998 162 m 8 Y s 998 170 m 7 Y s 989 170 m 9 X s 998 170 m 9 X s black
 998 170 m20 0 0 0.6 c 1016 189 m 15 Y s 1016 204 m 15 Y s 1007 204 m 9 X s 1016 204 m 9 X s black 1016 204 m20 0 0 0.6 c 1034 166 m 11 Y s 1034 177 m 11 Y s 1025 177 m 9 X s 1034 177 m 9 X s black 1034 177 m20 0 0 0.6 c 1052 157 m 7 Y s 1052 164 m 7
 Y s 1043 164 m 9 X s 1052 164 m 9 X s black 1052 164 m20 0 0 0.6 c 1070 165 m 9 Y s 1070 174 m 8 Y s 1061 174 m 9 X s 1070 174 m 9 X s black 1070 174 m20 0 0 0.6 c 1089 162 m 8 Y s 1089 170 m 8 Y s 1079 170 m 10 X s 1089 170 m 9 X s black 1089 170
 m20 0 0 0.6 c 1107 179 m 13 Y s 1107 192 m 13 Y s 1098 192 m 9 X s 1107 192 m 9 X s black 1107 192 m20 0 0 0.6 c 1125 157 m 7 Y s 1125 164 m 7 Y s 1116 164 m 9 X s 1125 164 m 9 X s black 1125 164 m20 0 0 0.6 c 1143 168 m 12 Y s 1143 180 m 12 Y s
 1134 180 m 9 X s 1143 180 m 9 X s black 1143 180 m20 0 0 0.6 c 1161 169 m 9 Y s 1161 178 m 10 Y s 1152 178 m 9 X s 1161 178 m 9 X s black 1161 178 m20 0 0 0.6 c 1179 157 m 4 Y s 1179 161 m 4 Y s 1170 161 m 9 X s 1179 161 m 9 X s black 1179 161 m20 0
 0 0.6 c 1197 162 m 8 Y s 1197 170 m 7 Y s 1188 170 m 9 X s 1197 170 m 9 X s black 1197 170 m20 0 0 0.6 c 1215 162 m 8 Y s 1215 170 m 7 Y s 1206 170 m 9 X s 1215 170 m 10 X s black 1215 170 m20 0 0 0.6 c 1234 165 m 9 Y s 1234 174 m 9 Y s 1225 174 m 9
 X s 1234 174 m 9 X s black 1234 174 m20 0 0 0.6 c 1270 157 m 4 Y s 1270 161 m 4 Y s 1261 161 m 9 X s 1270 161 m 9 X s black 1270 161 m20 0 0 0.6 c 1288 157 m 4 Y s 1288 161 m 4 Y s 1279 161 m 9 X s 1288 161 m 9 X s black 1288 161 m20 0 0 0.6 c 1306
 157 m 4 Y s 1306 161 m 4 Y s 1297 161 m 9 X s 1306 161 m 9 X s black 1306 161 m20 0 0 0.6 c 1324 157 m 4 Y s 1324 161 m 4 Y s 1315 161 m 9 X s 1324 161 m 9 X s black 1324 161 m20 0 0 0.6 c 1379 159 m 7 Y s 1379 166 m 7 Y s 1370 166 m 9 X s 1379 166
 m 9 X s black 1379 166 m20 0 0 0.6 c 1397 159 m 7 Y s 1397 166 m 6 Y s 1388 166 m 9 X s 1397 166 m 9 X s black 1397 166 m20 0 0 0.6 c 1415 165 m 8 Y s 1415 173 m 9 Y s 1406 173 m 9 X s 1415 173 m 9 X s black 1415 173 m20 0 0 0.6 c 1469 157 m 4 Y s
 1469 161 m 4 Y s 1460 161 m 9 X s 1469 161 m 10 X s black 1469 161 m20 0 0 0.6 c 1506 160 m 8 Y s 1506 168 m 8 Y s 1497 168 m 9 X s 1506 168 m 9 X s black 1506 168 m20 0 0 0.6 c 1542 157 m 7 Y s 1542 164 m 7 Y s 1533 164 m 9 X s 1542 164 m 9 X s
 black 1542 164 m20 0 0 0.6 c 1578 159 m 6 Y s 1578 165 m 6 Y s 1569 165 m 9 X s 1578 165 m 9 X s black 1578 165 m20 0 0 0.6 c 1596 157 m 7 Y s 1596 164 m 7 Y s 1587 164 m 9 X s 1596 164 m 10 X s black 1596 164 m20 0 0 0.6 c 1633 157 m 4 Y s 1633 161
 m 4 Y s 1624 161 m 9 X s 1633 161 m 9 X s black 1633 161 m20 0 0 0.6 c 1651 161 m 10 Y s 1651 171 m 10 Y s 1642 171 m 9 X s 1651 171 m 9 X s black 1651 171 m20 0 0 0.6 c 1669 159 m 6 Y s 1669 165 m 6 Y s 1660 165 m 9 X s 1669 165 m 9 X s black 1669
 165 m20 0 0 0.6 c 1705 159 m 6 Y s 1705 165 m 7 Y s 1696 165 m 9 X s 1705 165 m 9 X s black 1705 165 m20 0 0 0.6 c 1796 157 m 4 Y s 1796 161 m 4 Y s 1787 161 m 9 X s 1796 161 m 9 X s black 1796 161 m20 0 0 0.6 c 1887 157 m 4 Y s 1887 161 m 4 Y s
 1878 161 m 9 X s 1887 161 m 9 X s black 1887 161 m20 0 0 0.6 c 1959 157 m 4 Y s 1959 161 m 4 Y s 1950 161 m 9 X s 1959 161 m 9 X s black 1959 161 m20 0 0 0.6 c 1977 157 m 4 Y s 1977 161 m 4 Y s 1968 161 m 9 X s 1977 161 m 10 X s black 1977 161 m20 1
 1 1 c 453 251 1769 1213 bf black 1769 1213 m 453 X s 2222 1213 m 251 Y s 2222 1464 m -453 X s 1769 1464 m -251 Y s 1 1 1 c black
 gsave  2268 1566 0 0 C 1958.48 1408.73 t 0 r /Helvetica findfont 53.9932 sf 0 0 m (chi) show NC gr  1769 1401 m 453 X s
 gsave  2268 1566 0 0 C 1786.69 1349.83 t 0 r /Helvetica findfont 53.9932 sf 0 0 m (Entries ) show NC gr 
 gsave  2268 1566 0 0 C 2061.56 1354.74 t 0 r /Helvetica findfont 53.9932 sf 0 0 m ( 2166) show NC gr 
 gsave  2268 1566 0 0 C 1786.69 1286.02 t 0 r /Helvetica findfont 53.9932 sf 0 0 m (Mean  ) show NC gr 
 gsave  2268 1566 0 0 C 2032.11 1290.93 t 0 r /Helvetica findfont 53.9932 sf 0 0 m (  5.624) show NC gr 
 gsave  2268 1566 0 0 C 1786.69 1222.21 t 0 r /Helvetica findfont 53.9932 sf 0 0 m (RMS   ) show NC gr 
 gsave  2268 1566 0 0 C 2032.11 1227.12 t 0 r /Helvetica findfont 53.9932 sf 0 0 m (  6.588) show NC gr  227 157 m 1814 X s 245 194 m -37 Y s 281 175 m -18 Y s 317 175 m -18 Y s 354 175 m -18 Y s 390 175 m -18 Y s 426 194 m -37 Y s 463 175 m -18 Y s
 499 175 m -18 Y s 535 175 m -18 Y s 571 175 m -18 Y s 608 194 m -37 Y s 644 175 m -18 Y s 680 175 m -18 Y s 717 175 m -18 Y s 753 175 m -18 Y s 789 194 m -37 Y s 825 175 m -18 Y s 862 175 m -18 Y s 898 175 m -18 Y s 934 175 m -18 Y s 971 194 m -37 Y
 s 1007 175 m -18 Y s 1043 175 m -18 Y s 1079 175 m -18 Y s 1116 175 m -18 Y s 1152 194 m -37 Y s 1188 175 m -18 Y s 1225 175 m -18 Y s 1261 175 m -18 Y s 1297 175 m -18 Y s 1333 194 m -37 Y s 1370 175 m -18 Y s 1406 175 m -18 Y s 1442 175 m -18 Y s
 1479 175 m -18 Y s 1515 194 m -37 Y s 1551 175 m -18 Y s 1587 175 m -18 Y s 1624 175 m -18 Y s 1660 175 m -18 Y s 1696 194 m -37 Y s 1733 175 m -18 Y s 1769 175 m -18 Y s 1805 175 m -18 Y s 1841 175 m -18 Y s 1878 194 m -37 Y s 245 194 m -37 Y s
 1878 194 m -37 Y s 1914 175 m -18 Y s 1950 175 m -18 Y s 1987 175 m -18 Y s 2023 175 m -18 Y s
 gsave  2268 1566 0 0 C 225.79 107.987 t 0 r /Helvetica findfont 49.0848 sf 0 0 m (0) show NC gr 
 gsave  2268 1566 0 0 C 407.404 107.987 t 0 r /Helvetica findfont 49.0848 sf 0 0 m (5) show NC gr 
 gsave  2268 1566 0 0 C 574.292 107.987 t 0 r /Helvetica findfont 49.0848 sf 0 0 m (10) show NC gr 
 gsave  2268 1566 0 0 C 755.906 107.987 t 0 r /Helvetica findfont 49.0848 sf 0 0 m (15) show NC gr 
 gsave  2268 1566 0 0 C 937.519 107.987 t 0 r /Helvetica findfont 49.0848 sf 0 0 m (20) show NC gr 
 gsave  2268 1566 0 0 C 1119.13 107.987 t 0 r /Helvetica findfont 49.0848 sf 0 0 m (25) show NC gr 
 gsave  2268 1566 0 0 C 1300.75 107.987 t 0 r /Helvetica findfont 49.0848 sf 0 0 m (30) show NC gr 
 gsave  2268 1566 0 0 C 1482.36 107.987 t 0 r /Helvetica findfont 49.0848 sf 0 0 m (35) show NC gr 
 gsave  2268 1566 0 0 C 1663.97 107.987 t 0 r /Helvetica findfont 49.0848 sf 0 0 m (40) show NC gr 
 gsave  2268 1566 0 0 C 1845.59 107.987 t 0 r /Helvetica findfont 49.0848 sf 0 0 m (45) show NC gr  227 157 m 1252 Y s 281 157 m -54 X s 254 183 m -27 X s 254 209 m -27 X s 254 236 m -27 X s 254 262 m -27 X s 281 288 m -54 X s 254 314 m -27 X s 254
 341 m -27 X s 254 367 m -27 X s 254 393 m -27 X s 281 420 m -54 X s 254 446 m -27 X s 254 472 m -27 X s 254 499 m -27 X s 254 525 m -27 X s 281 551 m -54 X s 254 577 m -27 X s 254 604 m -27 X s 254 630 m -27 X s 254 656 m -27 X s 281 683 m -54 X s
 254 709 m -27 X s 254 735 m -27 X s 254 762 m -27 X s 254 788 m -27 X s 281 814 m -54 X s 254 841 m -27 X s 254 867 m -27 X s 254 893 m -27 X s 254 919 m -27 X s 281 946 m -54 X s 254 972 m -27 X s 254 998 m -27 X s 254 1025 m -27 X s 254 1051 m -27
 X s 281 1077 m -54 X s 254 1104 m -27 X s 254 1130 m -27 X s 254 1156 m -27 X s 254 1183 m -27 X s 281 1209 m -54 X s 254 1235 m -27 X s 254 1261 m -27 X s 254 1288 m -27 X s 254 1314 m -27 X s 281 1340 m -54 X s 281 1340 m -54 X s 254 1367 m -27 X
 s 254 1393 m -27 X s
 gsave  2268 1566 0 0 C 181.614 137.437 t 0 r /Helvetica findfont 49.0848 sf 0 0 m (0) show NC gr 
 gsave  2268 1566 0 0 C 112.895 269.966 t 0 r /Helvetica findfont 49.0848 sf 0 0 m (0.05) show NC gr 
 gsave  2268 1566 0 0 C 152.163 402.495 t 0 r /Helvetica findfont 49.0848 sf 0 0 m (0.1) show NC gr 
 gsave  2268 1566 0 0 C 112.895 535.024 t 0 r /Helvetica findfont 49.0848 sf 0 0 m (0.15) show NC gr 
 gsave  2268 1566 0 0 C 142.346 667.553 t 0 r /Helvetica findfont 49.0848 sf 0 0 m (0.2) show NC gr 
 gsave  2268 1566 0 0 C 112.895 795.173 t 0 r /Helvetica findfont 49.0848 sf 0 0 m (0.25) show NC gr 
 gsave  2268 1566 0 0 C 142.346 927.702 t 0 r /Helvetica findfont 49.0848 sf 0 0 m (0.3) show NC gr 
 gsave  2268 1566 0 0 C 112.895 1060.23 t 0 r /Helvetica findfont 49.0848 sf 0 0 m (0.35) show NC gr 
 gsave  2268 1566 0 0 C 142.346 1192.76 t 0 r /Helvetica findfont 49.0848 sf 0 0 m (0.4) show NC gr 
 gsave  2268 1566 0 0 C 112.895 1325.29 t 0 r /Helvetica findfont 49.0848 sf 0 0 m (0.45) show NC gr  1 1 1 c 453 251 1769 1213 bf black 1769 1213 m 453 X s 2222 1213 m 251 Y s 2222 1464 m -453 X s 1769 1464 m -251 Y s 1 1 1 c black
 gsave  2268 1566 0 0 C 1958.48 1408.73 t 0 r /Helvetica findfont 53.9932 sf 0 0 m (chi) show NC gr  1769 1401 m 453 X s
 gsave  2268 1566 0 0 C 1786.69 1349.83 t 0 r /Helvetica findfont 53.9932 sf 0 0 m (Entries ) show NC gr 
 gsave  2268 1566 0 0 C 2061.56 1354.74 t 0 r /Helvetica findfont 53.9932 sf 0 0 m ( 2166) show NC gr 
 gsave  2268 1566 0 0 C 1786.69 1286.02 t 0 r /Helvetica findfont 53.9932 sf 0 0 m (Mean  ) show NC gr 
 gsave  2268 1566 0 0 C 2032.11 1290.93 t 0 r /Helvetica findfont 53.9932 sf 0 0 m (  5.624) show NC gr 
 gsave  2268 1566 0 0 C 1786.69 1222.21 t 0 r /Helvetica findfont 53.9932 sf 0 0 m (RMS   ) show NC gr 
 gsave  2268 1566 0 0 C 2032.11 1227.12 t 0 r /Helvetica findfont 53.9932 sf 0 0 m (  6.588) show NC gr  1 1 1 c black
 gsave  2268 1566 0 0 C 1089.68 1487.27 t 0 r /Helvetica findfont 68.7187 sf 0 0 m (chi) show NC gr 
 gr  gr showpage
end
%%EOF
