%!PS-Adobe-2.0 EPSF-2.0
%%BoundingBox:  0 0 567 384
%%Title: : c1
%%Creator: ROOT Version 5.34/18
%%CreationDate: Thu Oct 23 11:35:55 2014
%%EndComments
%%BeginProlog
80 dict begin
/s {stroke} def /l {lineto} def /m {moveto} def /t {translate} def
/r {rotate} def /rl {roll}  def /R {repeat} def
/d {rlineto} def /rm {rmoveto} def /gr {grestore} def /f {eofill} def
/c {setrgbcolor} def /black {0 setgray} def /sd {setdash} def
/cl {closepath} def /sf {scalefont setfont} def /lw {setlinewidth} def
/box {m dup 0 exch d exch 0 d 0 exch neg d cl} def
/NC{systemdict begin initclip end}def/C{NC box clip newpath}def
/bl {box s} def /bf {box f} def /Y { 0 exch d} def /X { 0 d} def 
/K {{pop pop 0 moveto} exch kshow} bind def
/ita {/ang 15 def gsave [1 0 ang dup sin exch cos div 1 0 0] concat} def 
/mp {newpath /y exch def /x exch def} def
/side {[w .77 mul w .23 mul] .385 w mul sd w 0 l currentpoint t -144 r} def
/mr {mp x y w2 0 360 arc} def /m24 {mr s} def /m20 {mr f} def
/mb {mp x y w2 add m w2 neg 0 d 0 w neg d w 0 d 0 w d cl} def
/mt {mp x y w2 add m w2 neg w neg d w 0 d cl} def
/m21 {mb f} def /m25 {mb s} def /m22 {mt f} def /m26{mt s} def
/m23 {mp x y w2 sub m w2 w d w neg 0 d cl f} def
/m27 {mp x y w2 add m w3 neg w2 neg d w3 w2 neg d w3 w2 d cl s} def
/m28 {mp x w2 sub y w2 sub w3 add m w3 0 d  0 w3 neg d w3 0 d 0 w3 d w3 0 d  0 w3 d w3 neg 0 d 0 w3 d w3 neg 0 d 0 w3 neg d w3 neg 0 d cl s } def
/m29 {mp gsave x w2 sub y w2 add w3 sub m currentpoint t 4 {side} repeat cl fill gr} def
/m30 {mp gsave x w2 sub y w2 add w3 sub m currentpoint t 4 {side} repeat cl s gr} def
/m31 {mp x y w2 sub m 0 w d x w2 sub y m w 0 d x w2 sub y w2 add m w w neg d x w2 sub y w2 sub m w w d s} def
/m32 {mp x y w2 sub m w2 w d w neg 0 d cl s} def
/m33 {mp x y w2 add m w3 neg w2 neg d w3 w2 neg d w3 w2 d cl f} def
/m34 {mp x w2 sub y w2 sub w3 add m w3 0 d  0 w3 neg d w3 0 d 0 w3 d w3 0 d  0 w3 d w3 neg 0 d 0 w3 d w3 neg 0 d 0 w3 neg d w3 neg 0 d cl f } def
/m2 {mp x y w2 sub m 0 w d x w2 sub y m w 0 d s} def
/m5 {mp x w2 sub y w2 sub m w w d x w2 sub y w2 add m w w neg d s} def
/reEncode {exch findfont dup length dict begin {1 index /FID eq  {pop pop} {def} ifelse } forall /Encoding exch def currentdict end dup /FontName get exch definefont pop } def [/Times-Bold /Times-Italic /Times-BoldItalic /Helvetica /Helvetica-Oblique
 /Helvetica-Bold /Helvetica-BoldOblique /Courier /Courier-Oblique /Courier-Bold /Courier-BoldOblique /Times-Roman /AvantGarde-Book /AvantGarde-BookOblique /AvantGarde-Demi /AvantGarde-DemiOblique /Bookman-Demi /Bookman-DemiItalic /Bookman-Light
 /Bookman-LightItalic /Helvetica-Narrow /Helvetica-Narrow-Bold /Helvetica-Narrow-BoldOblique /Helvetica-Narrow-Oblique /NewCenturySchlbk-Roman /NewCenturySchlbk-Bold /NewCenturySchlbk-BoldItalic /NewCenturySchlbk-Italic /Palatino-Bold
 /Palatino-BoldItalic /Palatino-Italic /Palatino-Roman ] {ISOLatin1Encoding reEncode } forall
%%EndProlog
%%BeginSetup
%%EndSetup
newpath  gsave  .25 .25 scale  gsave  0 0 t black[  ] 0 sd 3 lw 1 1 1 c 2268 1538 0 0 bf black 1 1 1 c 1814 1230 227 154 bf black 1814 1230 227 154 bl 1 1 1 c 1814 1230 227 154 bf black 1814 1230 227 154 bl 0 0 1 c 604 790 227 154 bf black 0 0 1 c
 605 1009 831 154 bf black 0 0 1 c 605 627 1436 154 bf black 0.95 0.95 0.95 c 453 246 1769 1284 bf black 1779 1284 m -6 Y 450 X 242 Y -7 X -236 Y f 1769 1284 m 246 Y 453 X -246 Y -453 X cl s 1 1 1 c black
 gsave  2268 1538 0 0 C 1782.24 1489 t 0 r /Helvetica-Bold findfont 35.8403 sf 0 0 m (additional jet multiplicity) show NC gr  1769 1469 m 453 X s
 gsave  2268 1538 0 0 C 1788.76 1420.58 t 0 r /Helvetica-Bold findfont 52.1314 sf 0 0 m (Entries ) show NC gr 
 gsave  2268 1538 0 0 C 2156.94 1420.58 t 0 r /Helvetica-Bold findfont 52.1314 sf 0 0 m ( 3) show NC gr 
 gsave  2268 1538 0 0 C 1788.76 1358.67 t 0 r /Helvetica-Bold findfont 52.1314 sf 0 0 m (Mean  ) show NC gr 
 gsave  2268 1538 0 0 C 2033.13 1358.67 t 0 r /Helvetica-Bold findfont 52.1314 sf 0 0 m ( 0.9331) show NC gr 
 gsave  2268 1538 0 0 C 1788.76 1296.77 t 0 r /Helvetica-Bold findfont 52.1314 sf 0 0 m (RMS   ) show NC gr 
 gsave  2268 1538 0 0 C 2026.61 1296.77 t 0 r /Helvetica-Bold findfont 52.1314 sf 0 0 m ( 0.7614) show NC gr  227 154 m 1814 X s 227 191 m -37 Y s 287 172 m -18 Y s 348 172 m -18 Y s 408 172 m -18 Y s 469 172 m -18 Y s 529 191 m -37 Y s 590 172 m -18
 Y s 650 172 m -18 Y s 711 172 m -18 Y s 771 172 m -18 Y s 831 191 m -37 Y s 892 172 m -18 Y s 952 172 m -18 Y s 1013 172 m -18 Y s 1073 172 m -18 Y s 1134 191 m -37 Y s 1194 172 m -18 Y s 1255 172 m -18 Y s 1315 172 m -18 Y s 1376 172 m -18 Y s 1436
 191 m -37 Y s 1497 172 m -18 Y s 1557 172 m -18 Y s 1618 172 m -18 Y s 1678 172 m -18 Y s 1739 191 m -37 Y s 1799 172 m -18 Y s 1860 172 m -18 Y s 1920 172 m -18 Y s 1980 172 m -18 Y s 2041 191 m -37 Y s
 gsave  2268 1538 0 0 C 182.46 104.263 t 0 r /Helvetica findfont 48.8732 sf 0 0 m (\2550.5) show NC gr 
 gsave  2268 1538 0 0 C 514.798 104.263 t 0 r /Helvetica findfont 48.8732 sf 0 0 m (0) show NC gr 
 gsave  2268 1538 0 0 C 795.004 104.263 t 0 r /Helvetica findfont 48.8732 sf 0 0 m (0.5) show NC gr 
 gsave  2268 1538 0 0 C 1124.08 104.263 t 0 r /Helvetica findfont 48.8732 sf 0 0 m (1) show NC gr 
 gsave  2268 1538 0 0 C 1397.77 104.263 t 0 r /Helvetica findfont 48.8732 sf 0 0 m (1.5) show NC gr 
 gsave  2268 1538 0 0 C 1723.59 104.263 t 0 r /Helvetica findfont 48.8732 sf 0 0 m (2) show NC gr 
 gsave  2268 1538 0 0 C 2003.8 104.263 t 0 r /Helvetica findfont 48.8732 sf 0 0 m (2.5) show NC gr  227 154 m 1230 Y s 281 154 m -54 X s 254 178 m -27 X s 254 203 m -27 X s 254 228 m -27 X s 254 252 m -27 X s 281 277 m -54 X s 254 301 m -27 X s 254
 326 m -27 X s 254 351 m -27 X s 254 375 m -27 X s 281 400 m -54 X s 254 424 m -27 X s 254 449 m -27 X s 254 474 m -27 X s 254 498 m -27 X s 281 523 m -54 X s 254 547 m -27 X s 254 572 m -27 X s 254 597 m -27 X s 254 621 m -27 X s 281 646 m -54 X s
 254 671 m -27 X s 254 695 m -27 X s 254 720 m -27 X s 254 744 m -27 X s 281 769 m -54 X s 254 794 m -27 X s 254 818 m -27 X s 254 843 m -27 X s 254 867 m -27 X s 281 892 m -54 X s 254 917 m -27 X s 254 941 m -27 X s 254 966 m -27 X s 254 990 m -27 X
 s 281 1015 m -54 X s 254 1040 m -27 X s 254 1064 m -27 X s 254 1089 m -27 X s 254 1113 m -27 X s 281 1138 m -54 X s 254 1163 m -27 X s 254 1187 m -27 X s 254 1212 m -27 X s 254 1236 m -27 X s 281 1261 m -54 X s 254 1286 m -27 X s 254 1310 m -27 X s
 254 1335 m -27 X s 254 1359 m -27 X s 281 1384 m -54 X s
 gsave  2268 1538 0 0 C 162.911 120.554 t 0 r /Helvetica findfont 101.005 sf 0 0 m (0) show NC gr 
 gsave  2268 1538 0 0 C 22.8075 241.108 t 0 r /Helvetica findfont 101.005 sf 0 0 m (0.05) show NC gr 
 gsave  2268 1538 0 0 C 94.4882 364.92 t 0 r /Helvetica findfont 101.005 sf 0 0 m (0.1) show NC gr 
 gsave  2268 1538 0 0 C 22.8075 488.732 t 0 r /Helvetica findfont 101.005 sf 0 0 m (0.15) show NC gr 
 gsave  2268 1538 0 0 C 78.1971 612.544 t 0 r /Helvetica findfont 101.005 sf 0 0 m (0.2) show NC gr 
 gsave  2268 1538 0 0 C 22.8075 733.098 t 0 r /Helvetica findfont 101.005 sf 0 0 m (0.25) show NC gr 
 gsave  2268 1538 0 0 C 78.1971 856.91 t 0 r /Helvetica findfont 101.005 sf 0 0 m (0.3) show NC gr 
 gsave  2268 1538 0 0 C 22.8075 980.722 t 0 r /Helvetica findfont 101.005 sf 0 0 m (0.35) show NC gr 
 gsave  2268 1538 0 0 C 78.1971 1104.53 t 0 r /Helvetica findfont 101.005 sf 0 0 m (0.4) show NC gr 
 gsave  2268 1538 0 0 C 22.8075 1228.35 t 0 r /Helvetica findfont 101.005 sf 0 0 m (0.45) show NC gr 
 gsave  2268 1538 0 0 C 78.1971 1348.9 t 0 r /Helvetica findfont 101.005 sf 0 0 m (0.5) show NC gr  0.95 0.95 0.95 c 453 246 1769 1284 bf black 1779 1284 m -6 Y 450 X 242 Y -7 X -236 Y f 1769 1284 m 246 Y 453 X -246 Y -453 X cl s 1 1 1 c black
 gsave  2268 1538 0 0 C 1782.24 1489 t 0 r /Helvetica-Bold findfont 35.8403 sf 0 0 m (additional jet multiplicity) show NC gr  1769 1469 m 453 X s
 gsave  2268 1538 0 0 C 1788.76 1420.58 t 0 r /Helvetica-Bold findfont 52.1314 sf 0 0 m (Entries ) show NC gr 
 gsave  2268 1538 0 0 C 2156.94 1420.58 t 0 r /Helvetica-Bold findfont 52.1314 sf 0 0 m ( 3) show NC gr 
 gsave  2268 1538 0 0 C 1788.76 1358.67 t 0 r /Helvetica-Bold findfont 52.1314 sf 0 0 m (Mean  ) show NC gr 
 gsave  2268 1538 0 0 C 2033.13 1358.67 t 0 r /Helvetica-Bold findfont 52.1314 sf 0 0 m ( 0.9331) show NC gr 
 gsave  2268 1538 0 0 C 1788.76 1296.77 t 0 r /Helvetica-Bold findfont 52.1314 sf 0 0 m (RMS   ) show NC gr 
 gsave  2268 1538 0 0 C 2026.61 1296.77 t 0 r /Helvetica-Bold findfont 52.1314 sf 0 0 m ( 0.7614) show NC gr  0.95 0.95 0.95 c 567 307 1587 308 bf black 1587 308 m 567 X s 2154 308 m 307 Y s 2154 615 m -567 X s 1587 615 m -307 Y s
 gsave  2268 1538 0 0 C 1726.85 505.023 t 0 r /Helvetica findfont 45.615 sf 0 0 m (MadGraph5 \(KITA\)) show NC gr  0 0 1 c 1609 484 m 99 X 108 Y -99 X f 0 0 0.6 c 1609 592 m 99 X s 1609 484 m 99 X s 1708 484 m 108 Y s 1609 484 m 108 Y s black
 gsave  2268 1538 0 0 C 1726.85 351.887 t 0 r /Helvetica findfont 45.615 sf 0 0 m (Rivet) show NC gr  1 0 0 c 1609 384 m 99 X s 1 1 1 c black 1 0 0 c 529 894 m 38 Y s 529 932 m 37 Y s 227 932 m 302 X s 529 932 m 302 X s black /w 2 def /w2 {w 2 div}
 def /w3 {w 3 div} def 529 932 m20 1 0 0 c 1134 1058 m 41 Y s 1134 1099 m 41 Y s 831 1099 m 303 X s 1134 1099 m 302 X s black 1134 1099 m20 1 0 0 c 1739 855 m 36 Y s 1739 891 m 36 Y s 1436 891 m 303 X s 1739 891 m 302 X s black 1739 891 m20 0.95 0.95
 0.95 c 567 307 1587 308 bf black 1587 308 m 567 X s 2154 308 m 307 Y s 2154 615 m -567 X s 1587 615 m -307 Y s
 gsave  2268 1538 0 0 C 1726.85 505.023 t 0 r /Helvetica findfont 45.615 sf 0 0 m (MadGraph5 \(KITA\)) show NC gr  0 0 1 c 1609 484 m 99 X 108 Y -99 X f 0 0 0.6 c 1609 592 m 99 X s 1609 484 m 99 X s 1708 484 m 108 Y s 1609 484 m 108 Y s black
 gsave  2268 1538 0 0 C 1726.85 351.887 t 0 r /Helvetica findfont 45.615 sf 0 0 m (Rivet) show NC gr  1 0 0 c 1609 384 m 99 X s black 0.95 0.95 0.95 c 886 86 23 1444 bf black 32 1444 m -6 Y 883 X 82 Y -6 X -76 Y f 23 1444 m 86 Y 886 X -86 Y -886 X cl
 s 1 1 1 c black
 gsave  2268 1538 0 0 C 61.9061 1469.45 t 0 r /Helvetica-Bold findfont 68.4225 sf 0 0 m (additional jet multiplicity) show NC gr 
 gr  gr showpage
end
%%EOF
