%!PS-Adobe-2.0 EPSF-2.0
%%BoundingBox:  0 0 567 423
%%Title: : Canvas_1
%%Creator: ROOT Version 5.34/18
%%CreationDate: Thu Oct 23 14:34:20 2014
%%EndComments
%%BeginProlog
80 dict begin
/s {stroke} def /l {lineto} def /m {moveto} def /t {translate} def
/r {rotate} def /rl {roll}  def /R {repeat} def
/d {rlineto} def /rm {rmoveto} def /gr {grestore} def /f {eofill} def
/c {setrgbcolor} def /black {0 setgray} def /sd {setdash} def
/cl {closepath} def /sf {scalefont setfont} def /lw {setlinewidth} def
/box {m dup 0 exch d exch 0 d 0 exch neg d cl} def
/NC{systemdict begin initclip end}def/C{NC box clip newpath}def
/bl {box s} def /bf {box f} def /Y { 0 exch d} def /X { 0 d} def 
/K {{pop pop 0 moveto} exch kshow} bind def
/ita {/ang 15 def gsave [1 0 ang dup sin exch cos div 1 0 0] concat} def 
/mp {newpath /y exch def /x exch def} def
/side {[w .77 mul w .23 mul] .385 w mul sd w 0 l currentpoint t -144 r} def
/mr {mp x y w2 0 360 arc} def /m24 {mr s} def /m20 {mr f} def
/mb {mp x y w2 add m w2 neg 0 d 0 w neg d w 0 d 0 w d cl} def
/mt {mp x y w2 add m w2 neg w neg d w 0 d cl} def
/m21 {mb f} def /m25 {mb s} def /m22 {mt f} def /m26{mt s} def
/m23 {mp x y w2 sub m w2 w d w neg 0 d cl f} def
/m27 {mp x y w2 add m w3 neg w2 neg d w3 w2 neg d w3 w2 d cl s} def
/m28 {mp x w2 sub y w2 sub w3 add m w3 0 d  0 w3 neg d w3 0 d 0 w3 d w3 0 d  0 w3 d w3 neg 0 d 0 w3 d w3 neg 0 d 0 w3 neg d w3 neg 0 d cl s } def
/m29 {mp gsave x w2 sub y w2 add w3 sub m currentpoint t 4 {side} repeat cl fill gr} def
/m30 {mp gsave x w2 sub y w2 add w3 sub m currentpoint t 4 {side} repeat cl s gr} def
/m31 {mp x y w2 sub m 0 w d x w2 sub y m w 0 d x w2 sub y w2 add m w w neg d x w2 sub y w2 sub m w w d s} def
/m32 {mp x y w2 sub m w2 w d w neg 0 d cl s} def
/m33 {mp x y w2 add m w3 neg w2 neg d w3 w2 neg d w3 w2 d cl f} def
/m34 {mp x w2 sub y w2 sub w3 add m w3 0 d  0 w3 neg d w3 0 d 0 w3 d w3 0 d  0 w3 d w3 neg 0 d 0 w3 d w3 neg 0 d 0 w3 neg d w3 neg 0 d cl f } def
/m2 {mp x y w2 sub m 0 w d x w2 sub y m w 0 d s} def
/m5 {mp x w2 sub y w2 sub m w w d x w2 sub y w2 add m w w neg d s} def
/reEncode {exch findfont dup length dict begin {1 index /FID eq  {pop pop} {def} ifelse } forall /Encoding exch def currentdict end dup /FontName get exch definefont pop } def [/Times-Bold /Times-Italic /Times-BoldItalic /Helvetica /Helvetica-Oblique
 /Helvetica-Bold /Helvetica-BoldOblique /Courier /Courier-Oblique /Courier-Bold /Courier-BoldOblique /Times-Roman /AvantGarde-Book /AvantGarde-BookOblique /AvantGarde-Demi /AvantGarde-DemiOblique /Bookman-Demi /Bookman-DemiItalic /Bookman-Light
 /Bookman-LightItalic /Helvetica-Narrow /Helvetica-Narrow-Bold /Helvetica-Narrow-BoldOblique /Helvetica-Narrow-Oblique /NewCenturySchlbk-Roman /NewCenturySchlbk-Bold /NewCenturySchlbk-BoldItalic /NewCenturySchlbk-Italic /Palatino-Bold
 /Palatino-BoldItalic /Palatino-Italic /Palatino-Roman ] {ISOLatin1Encoding reEncode } forall
%%EndProlog
%%BeginSetup
%%EndSetup
newpath  gsave  .25 .25 scale  gsave  0 0 t black[  ] 0 sd 3 lw 1 1 1 c 2268 1690 0 0 bf black 1 1 1 c 1817 1356 223 170 bf black 1817 1356 223 170 bl 1 1 1 c 1817 1356 223 170 bf black 1817 1356 223 170 bl 0 0 1 c 605 876 223 170 bf black 0 0 1 c
 606 1172 828 170 bf black 0 0 1 c 606 664 1434 170 bf black 0.95 0.95 0.95 c 453 271 1769 1411 bf black 1785 1411 m -10 Y 448 X 265 Y -11 X -255 Y f 1769 1411 m 271 Y 453 X -271 Y -453 X cl s 1 1 1 c black
 gsave  2268 1690 0 0 C 1774.97 1637.21 t 0 r /Helvetica-Bold findfont 37.0888 sf 0 0 m (additional jet multiplicity) show NC gr  1769 1614 m 453 X s
 gsave  2268 1690 0 0 C 1790.86 1563.03 t 0 r /Helvetica-Bold findfont 52.984 sf 0 0 m (Entries ) show NC gr 
 gsave  2268 1690 0 0 C 2156.45 1563.03 t 0 r /Helvetica-Bold findfont 52.984 sf 0 0 m ( 3) show NC gr 
 gsave  2268 1690 0 0 C 1790.86 1494.15 t 0 r /Helvetica-Bold findfont 52.984 sf 0 0 m (Mean  ) show NC gr 
 gsave  2268 1690 0 0 C 2023.99 1494.15 t 0 r /Helvetica-Bold findfont 52.984 sf 0 0 m ( 0.9219) show NC gr 
 gsave  2268 1690 0 0 C 1790.86 1425.27 t 0 r /Helvetica-Bold findfont 52.984 sf 0 0 m (RMS   ) show NC gr 
 gsave  2268 1690 0 0 C 2023.99 1425.27 t 0 r /Helvetica-Bold findfont 52.984 sf 0 0 m ( 0.7495) show NC gr  223 170 m 1817 X s 223 210 m -40 Y s 283 190 m -20 Y s 344 190 m -20 Y s 404 190 m -20 Y s 465 190 m -20 Y s 525 210 m -40 Y s 586 190 m -20
 Y s 647 190 m -20 Y s 707 190 m -20 Y s 768 190 m -20 Y s 828 210 m -40 Y s 889 190 m -20 Y s 949 190 m -20 Y s 1010 190 m -20 Y s 1071 190 m -20 Y s 1131 210 m -40 Y s 1192 190 m -20 Y s 1252 190 m -20 Y s 1313 190 m -20 Y s 1374 190 m -20 Y s 1434
 210 m -40 Y s 1495 190 m -20 Y s 1555 190 m -20 Y s 1616 190 m -20 Y s 1676 190 m -20 Y s 1737 210 m -40 Y s 1798 190 m -20 Y s 1858 190 m -20 Y s 1919 190 m -20 Y s 1979 190 m -20 Y s 2040 210 m -40 Y s
 gsave  2268 1690 0 0 C 174.847 116.565 t 0 r /Helvetica findfont 52.984 sf 0 0 m (\2550.5) show NC gr 
 gsave  2268 1690 0 0 C 508.647 116.565 t 0 r /Helvetica findfont 52.984 sf 0 0 m (0) show NC gr 
 gsave  2268 1690 0 0 C 789.462 116.565 t 0 r /Helvetica findfont 52.984 sf 0 0 m (0.5) show NC gr 
 gsave  2268 1690 0 0 C 1117.96 116.565 t 0 r /Helvetica findfont 52.984 sf 0 0 m (1) show NC gr 
 gsave  2268 1690 0 0 C 1393.48 116.565 t 0 r /Helvetica findfont 52.984 sf 0 0 m (1.5) show NC gr 
 gsave  2268 1690 0 0 C 1716.68 116.565 t 0 r /Helvetica findfont 52.984 sf 0 0 m (2) show NC gr 
 gsave  2268 1690 0 0 C 2002.8 116.565 t 0 r /Helvetica findfont 52.984 sf 0 0 m (2.5) show NC gr  223 170 m 1356 Y s 277 170 m -54 X s 250 197 m -27 X s 250 224 m -27 X s 250 251 m -27 X s 250 278 m -27 X s 277 305 m -54 X s 250 332 m -27 X s 250
 359 m -27 X s 250 387 m -27 X s 250 414 m -27 X s 277 441 m -54 X s 250 468 m -27 X s 250 495 m -27 X s 250 522 m -27 X s 250 549 m -27 X s 277 576 m -54 X s 250 604 m -27 X s 250 631 m -27 X s 250 658 m -27 X s 250 685 m -27 X s 277 712 m -54 X s
 250 739 m -27 X s 250 766 m -27 X s 250 793 m -27 X s 250 821 m -27 X s 277 848 m -54 X s 250 875 m -27 X s 250 902 m -27 X s 250 929 m -27 X s 250 956 m -27 X s 277 983 m -54 X s 250 1011 m -27 X s 250 1038 m -27 X s 250 1065 m -27 X s 250 1092 m
 -27 X s 277 1119 m -54 X s 250 1146 m -27 X s 250 1173 m -27 X s 250 1200 m -27 X s 250 1228 m -27 X s 277 1255 m -54 X s 250 1282 m -27 X s 250 1309 m -27 X s 250 1336 m -27 X s 250 1363 m -27 X s 277 1390 m -54 X s 250 1417 m -27 X s 250 1445 m
 -27 X s 250 1472 m -27 X s 250 1499 m -27 X s 277 1526 m -54 X s
 gsave  2268 1690 0 0 C 148.355 127.162 t 0 r /Helvetica findfont 111.266 sf 0 0 m (0) show NC gr 
 gsave  2268 1690 0 0 C -5.2984 264.92 t 0 r /Helvetica findfont 111.266 sf 0 0 m (0.05) show NC gr 
 gsave  2268 1690 0 0 C 74.1776 402.679 t 0 r /Helvetica findfont 111.266 sf 0 0 m (0.1) show NC gr 
 gsave  2268 1690 0 0 C -5.2984 535.139 t 0 r /Helvetica findfont 111.266 sf 0 0 m (0.15) show NC gr 
 gsave  2268 1690 0 0 C 52.984 672.897 t 0 r /Helvetica findfont 111.266 sf 0 0 m (0.2) show NC gr 
 gsave  2268 1690 0 0 C -5.2984 805.357 t 0 r /Helvetica findfont 111.266 sf 0 0 m (0.25) show NC gr 
 gsave  2268 1690 0 0 C 52.984 943.116 t 0 r /Helvetica findfont 111.266 sf 0 0 m (0.3) show NC gr 
 gsave  2268 1690 0 0 C -5.2984 1080.87 t 0 r /Helvetica findfont 111.266 sf 0 0 m (0.35) show NC gr 
 gsave  2268 1690 0 0 C 52.984 1213.33 t 0 r /Helvetica findfont 111.266 sf 0 0 m (0.4) show NC gr 
 gsave  2268 1690 0 0 C -5.2984 1351.09 t 0 r /Helvetica findfont 111.266 sf 0 0 m (0.45) show NC gr 
 gsave  2268 1690 0 0 C 52.984 1483.55 t 0 r /Helvetica findfont 111.266 sf 0 0 m (0.5) show NC gr  0.95 0.95 0.95 c 453 271 1769 1411 bf black 1785 1411 m -10 Y 448 X 265 Y -11 X -255 Y f 1769 1411 m 271 Y 453 X -271 Y -453 X cl s 1 1 1 c black
 gsave  2268 1690 0 0 C 1774.97 1637.21 t 0 r /Helvetica-Bold findfont 37.0888 sf 0 0 m (additional jet multiplicity) show NC gr  1769 1614 m 453 X s
 gsave  2268 1690 0 0 C 1790.86 1563.03 t 0 r /Helvetica-Bold findfont 52.984 sf 0 0 m (Entries ) show NC gr 
 gsave  2268 1690 0 0 C 2156.45 1563.03 t 0 r /Helvetica-Bold findfont 52.984 sf 0 0 m ( 3) show NC gr 
 gsave  2268 1690 0 0 C 1790.86 1494.15 t 0 r /Helvetica-Bold findfont 52.984 sf 0 0 m (Mean  ) show NC gr 
 gsave  2268 1690 0 0 C 2023.99 1494.15 t 0 r /Helvetica-Bold findfont 52.984 sf 0 0 m ( 0.9219) show NC gr 
 gsave  2268 1690 0 0 C 1790.86 1425.27 t 0 r /Helvetica-Bold findfont 52.984 sf 0 0 m (RMS   ) show NC gr 
 gsave  2268 1690 0 0 C 2023.99 1425.27 t 0 r /Helvetica-Bold findfont 52.984 sf 0 0 m ( 0.7495) show NC gr  0.95 0.95 0.95 c 567 338 1587 338 bf black 1587 338 m 567 X s 2154 338 m 338 Y s 2154 676 m -567 X s 1587 676 m -338 Y s
 gsave  2268 1690 0 0 C 1727.28 556.332 t 0 r /Helvetica findfont 47.6856 sf 0 0 m (MadGraph5 \(KITA\)) show NC gr  0 0 1 c 1609 532 m 99 X 119 Y -99 X f 0 0 0.6 c 1609 651 m 99 X s 1609 532 m 99 X s 1708 532 m 119 Y s 1609 532 m 119 Y s black
 gsave  2268 1690 0 0 C 1727.28 386.783 t 0 r /Helvetica findfont 47.6856 sf 0 0 m (Rivet) show NC gr  1 0 0 c 1609 423 m 99 X s 1 1 1 c black 1 0 0 c 525 1006 m 39 Y s 525 1045 m 39 Y s 223 1045 m 302 X s 525 1045 m 303 X s black /w 2 def /w2 {w 2
 div} def /w3 {w 3 div} def 525 1045 m20 1 0 0 c 1131 1179 m 43 Y s 1131 1222 m 43 Y s 828 1222 m 303 X s 1131 1222 m 303 X s black 1131 1222 m20 1 0 0 c 1737 917 m 37 Y s 1737 954 m 37 Y s 1434 954 m 303 X s 1737 954 m 303 X s black 1737 954 m20
 0.95 0.95 0.95 c 567 338 1587 338 bf black 1587 338 m 567 X s 2154 338 m 338 Y s 2154 676 m -567 X s 1587 676 m -338 Y s
 gsave  2268 1690 0 0 C 1727.28 556.332 t 0 r /Helvetica findfont 47.6856 sf 0 0 m (MadGraph5 \(KITA\)) show NC gr  0 0 1 c 1609 532 m 99 X 119 Y -99 X f 0 0 0.6 c 1609 651 m 99 X s 1609 532 m 99 X s 1708 532 m 119 Y s 1609 532 m 119 Y s black
 gsave  2268 1690 0 0 C 1727.28 386.783 t 0 r /Helvetica findfont 47.6856 sf 0 0 m (Rivet) show NC gr  1 0 0 c 1609 423 m 99 X s black 0.95 0.95 0.95 c 978 96 23 1586 bf black 39 1586 m -10 Y 972 X 90 Y -10 X -80 Y f 23 1586 m 96 Y 978 X -96 Y -978 X
 cl s 1 1 1 c black
 gsave  2268 1690 0 0 C 74.1776 1616.01 t 0 r /Helvetica-Bold findfont 74.1776 sf 0 0 m (additional jet multiplicity) show NC gr 
 gr  gr showpage
end
%%EOF
